{
  // THIS IS NOT USED AT THE MOMENT	

  // The title of the produced DMG, which will be shown when mounted
  "title": "Thonny VERSION",

  // Path to your icon, which will be shown when mounted
  "icon": "TestIcon.icns",

  // Path to your background
  "background": "TestBkg.png",

  // Size of all the icons inside the DMG
  "icon-size": 80,

  "contents": [

    // This is the contents of your DMG.

    // Each entry has a position specified by
    // X and Y in the center of its icon.

    // `type: link` creates a link to the specified target
    { "x": 448, "y": 344, "type": "link", "path": "/Applications" },

    // `type: file` adds a file to the DMG
    { "x": 192, "y": 344, "type": "file", "path": "TestApp.app" },
    { "x": 512, "y": 128, "type": "file", "path": "TestDoc.txt" }

  ]

}